{
    "FB_PAGE_TOKEN":"EAASbldBIEacBALfOsdr1QnxiNJHGAwsHnOfL183H7cSSAO3cZBFhOPZC6cXLV2UfoZB41lVq9z0GeoZCJdUqDYSrtTWYm7ZCzuJWwf77XiW0vMhDn1exUSER4MfQlC17KVfljSysGPmzcTZBzJlfNV1NSHeITgZBbRTw69BfxIobgZDZD",
    "FB_APP_SECRET": "1ebc05c0930aec9b0135585b1f19d675",
    "FB_VERIFY_TOKEN":"gi123"
}